…
This function requests information via the `evoeu.app` API and returns a `tibble` (see the `tidyverse`) that lists the available databases. Here, we want the `euip` database.

### Looking up datasets

Next, we need to pick the dataset in the `euip` database that has directed dyad-year data on decisions in infringement cases. To see the datasets that are available in the `euip` database, we can use the `list_datasets` function. The function takes one argument, which is the name of a database, as given by `list_databases()`. 

```r
> list_datasets(database = "euip")
Requesting data via the eulaw.app API...
Response received...
# A tibble: 22 x 2
   dataset_id dataset         
        <int> <chr>           
 1          1 cases           
 2          2 cases_ts        
 3          3 cases_ts_ct     
 4          4 cases_csts_ms   
 5          5 cases_csts_ms_ct
 6          6 cases_csts_dp   
 7          7 cases_csts_dp_ct
 8          8 cases_ddy       
 9          9 cases_ddy_ct    
10         10 cases_net       
# … with 12 more rows
```
…
